{
    "tag": "div",
    "class": "page",
    "contents": [
        {
            "tag": "h1",
            "contents": "Home page"
        },
        {
            "tag": "p",
            "contents": "Illud tamen te esse admonitum volo, primum ut qualis es talem te esse omnes existiment ut, quantum a rerum turpitudine abes, tantum te a verborum libertate seiungas; deinde ut ea in alterum ne dicas, quae cum tibi falso responsa sint, erubescas. Quis est enim, cui via ista non pateat, qui isti aetati atque etiam isti dignitati non possit quam velit petulanter, etiamsi sine ulla suspicione, at non sine argumento male dicere? Sed istarum partium culpa est eorum, qui te agere voluerunt; laus pudoris tui, quod ea te invitum dicere videbamus, ingenii, quod ornate politeque dixisti."
        }
    ]
}
