{
    "tag": "main",
    "style_rules": {
        "width": "100%",
        "display": "grid",
        "gridTemplateColumns": "auto 1fr",
        "gridTemplateRows": "auto 1fr auto",
        "minHeight": "100%"
    },
    "contents": [
        {
            "tag": "header",
            "contents": [
                {
                    "tag": "strong",
                    "contents": "My header text"
                }
            ],
            "style_rules": {
                "gridColumn": "1 / span 2"
            }
        },
        {
            "tag": "aside",
            "contents": [
                {
                    "tag": "strong",
                    "contents": "Sidebar"
                }
            ],
            "style_rules": {
                "gridColumn": "1"
            }
        },
        {
            "tag": "section",
            "id": "page-container",
            "contents": "page container",
            "style_rules": {
                "gridColumn": "2"
            }
        },
        {
            "tag": "footer",
            "contents": [
                {
                    "tag": "ul",
                    "contents": [
                        {
                            "tag": "li",
                            "contents": [
                                {
                                    "tag": "a",
                                    "href": "http://www.example.com",
                                    "contents": "some link"
                                }
                            ]
                        },
                        {
                            "tag": "li",
                            "contents": [
                                {
                                    "tag": "a",
                                    "href": "http://www.another-example.com",
                                    "contents": "some other link"
                                }
                            ]
                        }
                    ]
                }
            ],
            "style_rules": {
                "gridColumn": "1 / span 2"
            }
        }
    ]
}
